﻿  Source.c
c:\users\julia\onedrive - universidad de los andes\fundamentos de infraestructura tecnologica\p2_infratec\project2\project2\source.c(45): warning C4101: 'n': variable local sin referencia
c:\users\julia\onedrive - universidad de los andes\fundamentos de infraestructura tecnologica\p2_infratec\project2\project2\source.c(44): warning C4101: 'temp': variable local sin referencia
c:\users\julia\onedrive - universidad de los andes\fundamentos de infraestructura tecnologica\p2_infratec\project2\project2\source.c(120): warning C4101: 'aInsertar': variable local sin referencia
c:\users\julia\onedrive - universidad de los andes\fundamentos de infraestructura tecnologica\p2_infratec\project2\project2\source.c(118): warning C4101: 'primero': variable local sin referencia
c:\users\julia\onedrive - universidad de los andes\fundamentos de infraestructura tecnologica\p2_infratec\project2\project2\source.c(119): warning C4101: 'contador': variable local sin referencia
c:\users\julia\onedrive - universidad de los andes\fundamentos de infraestructura tecnologica\p2_infratec\project2\project2\source.c(252): error C2404: 'bitsDisponibles': registro no válido en 'segundo operando'
c:\users\julia\onedrive - universidad de los andes\fundamentos de infraestructura tecnologica\p2_infratec\project2\project2\source.c(252): error C2443: conflicto de tamaño de operando
c:\users\julia\onedrive - universidad de los andes\fundamentos de infraestructura tecnologica\p2_infratec\project2\project2\source.c(268): error C2443: conflicto de tamaño de operando
